module gitlab.com/morteguita/cursos/freeCodeCamp/go-bookstore

go 1.18

require (
	github.com/go-sql-driver/mysql v1.5.0 // indirect
	github.com/gorilla/mux v1.8.0 // indirect
	github.com/jinzhu/gorm v1.9.16 // indirect
	github.com/jinzhu/inflection v1.0.0 // indirect
)
