module gitlab.com/morteguita/cursos/notes-app

go 1.17

require (
	github.com/gofiber/fiber/v2 v2.27.0
	github.com/go-sql-driver/mysql v1.6.0
)

require (
	github.com/andybalholm/brotli v1.0.4 // indirect
	github.com/klauspost/compress v1.14.1 // indirect
	github.com/valyala/bytebufferpool v1.0.0 // indirect
	github.com/valyala/fasthttp v1.33.0 // indirect
	github.com/valyala/tcplisten v1.0.0 // indirect
	golang.org/x/sys v0.0.0-20220111092808-5a964db01320 // indirect
)
